%YAML 1.1
%TAG !u! tag:unity3d.com,2011:
--- !u!1001 &3542342998797523145
PrefabInstance:
  m_ObjectHideFlags: 0
  serializedVersion: 2
  m_Modification:
    m_TransformParent: {fileID: 0}
    m_Modifications:
    - target: {fileID: 4376067358837483505, guid: c2ba6aaf645e9594e96b32411fd65a46, type: 3}
      propertyPath: m_Name
      value: Enemy (3)
      objectReference: {fileID: 0}
    - target: {fileID: 4376067358837483507, guid: c2ba6aaf645e9594e96b32411fd65a46, type: 3}
      propertyPath: m_RootOrder
      value: 0
      objectReference: {fileID: 0}
    - target: {fileID: 4376067358837483507, guid: c2ba6aaf645e9594e96b32411fd65a46, type: 3}
      propertyPath: m_LocalPosition.x
      value: 0.57631683
      objectReference: {fileID: 0}
    - target: {fileID: 4376067358837483507, guid: c2ba6aaf645e9594e96b32411fd65a46, type: 3}
      propertyPath: m_LocalPosition.y
      value: -11.386101
      objectReference: {fileID: 0}
    - target: {fileID: 4376067358837483507, guid: c2ba6aaf645e9594e96b32411fd65a46, type: 3}
      propertyPath: m_LocalPosition.z
      value: 0
      objectReference: {fileID: 0}
    - target: {fileID: 4376067358837483507, guid: c2ba6aaf645e9594e96b32411fd65a46, type: 3}
      propertyPath: m_LocalRotation.w
      value: 1
      objectReference: {fileID: 0}
    - target: {fileID: 4376067358837483507, guid: c2ba6aaf645e9594e96b32411fd65a46, type: 3}
      propertyPath: m_LocalRotation.x
      value: -0
      objectReference: {fileID: 0}
    - target: {fileID: 4376067358837483507, guid: c2ba6aaf645e9594e96b32411fd65a46, type: 3}
      propertyPath: m_LocalRotation.y
      value: -0
      objectReference: {fileID: 0}
    - target: {fileID: 4376067358837483507, guid: c2ba6aaf645e9594e96b32411fd65a46, type: 3}
      propertyPath: m_LocalRotation.z
      value: -0
      objectReference: {fileID: 0}
    - target: {fileID: 4376067358837483507, guid: c2ba6aaf645e9594e96b32411fd65a46, type: 3}
      propertyPath: m_LocalEulerAnglesHint.x
      value: 0
      objectReference: {fileID: 0}
    - target: {fileID: 4376067358837483507, guid: c2ba6aaf645e9594e96b32411fd65a46, type: 3}
      propertyPath: m_LocalEulerAnglesHint.y
      value: 0
      objectReference: {fileID: 0}
    - target: {fileID: 4376067358837483507, guid: c2ba6aaf645e9594e96b32411fd65a46, type: 3}
      propertyPath: m_LocalEulerAnglesHint.z
      value: 0
      objectReference: {fileID: 0}
    - target: {fileID: 4376067358837483509, guid: c2ba6aaf645e9594e96b32411fd65a46, type: 3}
      propertyPath: InitialSpeed
      value: 150
      objectReference: {fileID: 0}
    m_RemovedComponents:
    - {fileID: 1455503719179742671, guid: c2ba6aaf645e9594e96b32411fd65a46, type: 3}
  m_SourcePrefab: {fileID: 100100000, guid: c2ba6aaf645e9594e96b32411fd65a46, type: 3}
